dump.vcd
$date
	Fri Dec 15 18:58:37 2023
$end
$version
	QuestaSim Version 10.7c
$end
$timescale
	1ps
$end

$scope module uvm_root $end
$upscope $end

$scope module tb $end
$upscope $end

$scope begin uvm_pkg $end
$var parameter 32 ! UVM_HDL_MAX_WIDTH $end
$var parameter 32 " UVM_STREAMBITS $end
$var parameter 32 # UVM_RADIX $end
$var parameter 32 $ UVM_MACRO_NUMFLAGS $end
$var parameter 32 % UVM_DEFAULT $end
$var parameter 32 & UVM_ALL_ON $end
$var parameter 32 ' UVM_FLAGS_ON $end
$var parameter 32 ( UVM_FLAGS_OFF $end
$var parameter 32 ) UVM_COPY $end
$var parameter 32 * UVM_NOCOPY $end
$var parameter 32 + UVM_COMPARE $end
$var parameter 32 , UVM_NOCOMPARE $end
$var parameter 32 - UVM_PRINT $end
$var parameter 32 . UVM_NOPRINT $end
$var parameter 32 / UVM_RECORD $end
$var parameter 32 0 UVM_NORECORD $end
$var parameter 32 1 UVM_PACK $end
$var parameter 32 2 UVM_NOPACK $end
$var parameter 32 3 UVM_PHYSICAL $end
$var parameter 32 4 UVM_ABSTRACT $end
$var parameter 32 5 UVM_READONLY $end
$var parameter 32 6 UVM_NODEFPRINT $end
$var parameter 32 7 UVM_MACRO_EXTRAS $end
$var parameter 32 8 UVM_FLAGS $end
$var parameter 32 9 UVM_UNPACK $end
$var parameter 32 : UVM_CHECK_FIELDS $end
$var parameter 32 ; UVM_END_DATA_EXTRA $end
$var parameter 32 < UVM_START_FUNCS $end
$var parameter 32 = UVM_SET $end
$var parameter 32 > UVM_SETINT $end
$var parameter 32 ? UVM_SETOBJ $end
$var parameter 32 @ UVM_SETSTR $end
$var parameter 32 A UVM_END_FUNCS $end
$var parameter 32 B UVM_STR_CRC_POLYNOMIAL $end
$var parameter 32 C UVM_STDOUT $end
$var parameter 32 D UVM_LINE_WIDTH $end
$var parameter 32 E UVM_NUM_LINES $end
$var parameter 32 F UVM_SMALL_STRING $end
$var parameter 32 G UVM_LARGE_STRING $end
$var reg 1 H uvm_start_uvm_declarations $end
$var integer 32 I uvm_global_random_seed $end
$var integer 32 J UVM_UNBOUNDED_CONNECTIONS $end

$scope function uvm_hdl_check_path $end
$var integer 32 K uvm_hdl_check_path $end
$upscope $end

$scope function uvm_hdl_deposit $end
$var integer 32 L uvm_hdl_deposit $end
$var reg 1024 M value [1023:0] $end
$upscope $end

$scope function uvm_hdl_force $end
$var integer 32 N uvm_hdl_force $end
$var reg 1024 O value [1023:0] $end
$upscope $end

$scope task uvm_hdl_force_time $end
$var reg 1024 P value [1023:0] $end
$var time 64 Q force_time $end
$upscope $end

$scope function uvm_hdl_release_and_read $end
$var integer 32 R uvm_hdl_release_and_read $end
$var reg 1024 S value [1023:0] $end
$upscope $end

$scope function uvm_hdl_release $end
$var integer 32 T uvm_hdl_release $end
$upscope $end

$scope function uvm_hdl_read $end
$var integer 32 U uvm_hdl_read $end
$var reg 1024 V value [1023:0] $end
$upscope $end

$scope function uvm_dpi_get_next_arg_c $end
$var integer 32 W init $end
$upscope $end

$scope function uvm_dpi_get_tool_name_c $end
$upscope $end

$scope function uvm_dpi_get_tool_version_c $end
$upscope $end

$scope function uvm_dpi_get_next_arg $end
$var integer 32 X init $end
$upscope $end

$scope function uvm_dpi_get_tool_name $end
$upscope $end

$scope function uvm_dpi_get_tool_version $end
$upscope $end

$scope function uvm_dpi_regcomp $end
$upscope $end

$scope function uvm_dpi_regexec $end
$var integer 32 Y uvm_dpi_regexec $end
$upscope $end

$scope function uvm_dpi_regfree $end
$upscope $end

$scope function uvm_re_match $end
$var integer 32 Z uvm_re_match $end
$upscope $end

$scope function uvm_dump_re_cache $end
$upscope $end

$scope function uvm_glob_to_re $end
$upscope $end

$scope function uvm_revision_string $end
$upscope $end

$scope function uvm_radix_to_string $end
$var integer 32 [ radix $end
$upscope $end

$scope function uvm_instance_scope $end
$var reg 8 \ c [7:0] $end
$var integer 32 ] pos $end
$upscope $end

$scope function uvm_oneway_hash $end
$var integer 32 ^ uvm_oneway_hash $end
$var integer 32 _ seed $end
$var reg 1 ` msb $end
$var reg 8 a current_byte [7:0] $end
$var reg 32 b crc1 [31:0] $end
$upscope $end

$scope function uvm_create_random_seed $end
$var integer 32 c uvm_create_random_seed $end
$upscope $end

$scope function uvm_object_value_str $end
$upscope $end

$scope function uvm_leaf_scope $end
$var reg 8 d scope_separator [7:0] $end
$var reg 8 e bracket_match [7:0] $end
$var integer 32 f pos $end
$var integer 32 g bmatches $end
$upscope $end

$scope function uvm_bitstream_to_string $end
$var reg 4096 h value [4095:0] $end
$var integer 32 i size $end
$var integer 32 j radix $end
$upscope $end

$scope function uvm_integral_to_string $end
$var reg 64 k value [63:0] $end
$var integer 32 l size $end
$var integer 32 m radix $end
$upscope $end

$scope function uvm_vector_to_string $end
$var reg 4096 n value [4095:0] $end
$var integer 32 o size $end
$var integer 32 p radix $end
$upscope $end

$scope function uvm_get_array_index_int $end
$var integer 32 q uvm_get_array_index_int $end
$var reg 1 r is_wildcard $end
$var integer 32 s i $end
$upscope $end

$scope function uvm_get_array_index_string $end
$var reg 1 t is_wildcard $end
$var integer 32 u i $end
$upscope $end

$scope function uvm_is_array $end
$var reg 1 v uvm_is_array $end
$upscope $end

$scope function uvm_has_wildcard $end
$upscope $end

$scope function m_uvm_string_queue_join $end
$upscope $end

$scope task run_test $end
$upscope $end

$scope function global_stop_request $end
$upscope $end

$scope function set_global_timeout $end
$var time 64 w timeout $end
$var reg 1 x overridable $end
$upscope $end

$scope function set_global_stop_timeout $end
$var time 64 y timeout $end
$upscope $end

$scope function uvm_get_report_object $end
$upscope $end

$scope function uvm_report_enabled $end
$var integer 32 z uvm_report_enabled $end
$var integer 32 { verbosity $end
$var reg 2 | severity [1:0] $end
$upscope $end

$scope function uvm_report $end
$var reg 2 } severity [1:0] $end
$var integer 32 ~ verbosity $end
$var integer 32 !! line $end
$var reg 1 "! report_enabled_checked $end
$upscope $end

$scope function m__uvm_report_dpi $end
$var integer 32 #! severity $end
$var integer 32 $! verbosity $end
$var integer 32 %! line $end
$upscope $end

$scope function uvm_report_info $end
$var integer 32 &! verbosity $end
$var integer 32 '! line $end
$var reg 1 (! report_enabled_checked $end
$upscope $end

$scope function uvm_report_warning $end
$var integer 32 )! verbosity $end
$var integer 32 *! line $end
$var reg 1 +! report_enabled_checked $end
$upscope $end

$scope function uvm_report_error $end
$var integer 32 ,! verbosity $end
$var integer 32 -! line $end
$var reg 1 .! report_enabled_checked $end
$upscope $end

$scope function uvm_report_fatal $end
$var integer 32 /! verbosity $end
$var integer 32 0! line $end
$var reg 1 1! report_enabled_checked $end
$upscope $end

$scope function uvm_process_report_message $end
$upscope $end

$scope function uvm_string_to_severity $end
$var reg 1 2! uvm_string_to_severity $end
$var reg 2 3! sev [1:0] $end
$upscope $end

$scope function uvm_string_to_action $end
$upscope $end

$scope function set_config_int $end
$var reg 4096 4! value [4095:0] $end
$upscope $end

$scope function set_config_object $end
$var reg 1 5! clone $end
$upscope $end

$scope function set_config_string $end
$upscope $end

$scope function uvm_is_match $end
$var reg 1 6! uvm_is_match $end
$upscope $end

$scope function uvm_string_to_bits $end
$var reg 115200 7! uvm_string_to_bits [115199:0] $end
$upscope $end

$scope function uvm_bits_to_string $end
$var reg 115200 8! str [115199:0] $end
$upscope $end

$scope task uvm_wait_for_nba_region $end
$var integer 32 9! nba $end
$var integer 32 :! next_nba $end
$upscope $end

$scope function uvm_split_string $end
$upscope $end

$scope function uvm_hdl_concat2string $end
$upscope $end
$upscope $end

$scope begin uvm_tb_sv_unit $end
$upscope $end

$scope begin std $end
$upscope $end
$enddefinitions $end
#0
$dumpvars
0t
0v
02!
b0 3!
bx 7!
bx 8!
bx M
bx O
bx P
bx S
bx V
1H
1`
b1110010 a
b10001110010001111110000001110011 b
bx h
bx k
bx n
0r
0x
b0 |
b0 }
0"!
0(!
0+!
0.!
01!
bx 4!
05!
06!
b10000000000 !
b1000000000000 "
b1111000000000000000000000000 #
b10001 $
b10101010101 %
b101010101 &
b101010101 '
b0 (
b1 )
b10 *
b100 +
b1000 ,
b10000 -
b100000 .
b1000000 /
b10000000 0
b100000000 1
b1000000000 2
b10000000000000 3
b100000000000000 4
b1000000000000000 5
b10000000000000000 6
b100000000000000000 7
b100000000000000001 8
b100000000000000010 9
b100000000000000011 :
b100000000000000100 ;
b100000000000000101 <
b100000000000000110 =
b100000000000000110 >
b100000000000000111 ?
b100000000000001000 @
b100000000000001000 A
b100110000010001110110110110 B
b1 C
b1111000 D
b1111000 E
b1110111111 F
b11100000111111111 G
b0 [
b0 d
b0 e
b0 f
b0 g
b0 u
b0 K
b0 L
b0 N
b0 R
b0 T
b0 U
b0 W
b0 X
b0 Y
b0 Z
b10101111111110001010110000110 I
b101110 \
b111 ]
b10100010000111101100110111110111 ^
b10101111111110001010110000110 _
b110010111000000010001100111 c
b0 i
b0 j
b0 l
b0 m
b0 o
b0 p
b0 q
b0 s
b0 z
b111110100 {
b0 ~
b0 !!
b0 #!
b0 $!
b0 %!
b0 &!
b0 '!
b0 )!
b0 *!
b0 ,!
b0 -!
b0 /!
b0 0!
b100011 9!
b100011 :!
b11111111111111111111111111111111 J
bx Q
bx w
bx y
$end
#90000
b100100 :!
b100100 9!
#170000
b100101 :!
b10100010000111101100110111111000 c
b100101 9!
#230000
b100110 :!
b10100010000111101100110111111010 c
b100110 9!
#290000
b100111 :!
b10100010000111101100110111111101 c
b100111 9!
#350000
b101000 :!
b10100010000111101100111000000001 c
b101000 9!
#410000
b101001 :!
b10100010000111101100111000000110 c
b101001 9!
#470000
b101010 :!
b10100010000111101100111000001100 c
b101010 9!
#530000
b101011 :!
b10100010000111101100111000010011 c
b101011 9!
#590000
b101100 :!
b10100010000111101100111000011011 c
b101100 9!
#650000
b101101 :!
b10100010000111101100111000100100 c
b101101 9!
#710000
b101110 :!
b10100010000111101100111000101110 c
b101110 9!
#770000
b101111 :!
b10100010000111101100111000111001 c
b101111 9!
#830000
b110000 :!
b10100010000111101100111001000101 c
b110000 9!
#890000
b110001 :!
b10100010000111101100111001010010 c
b110001 9!
#950000
b110010 :!
b10100010000111101100111001100000 c
b110010 9!
#1010000
b110011 :!
b10100010000111101100111001101111 c
b110011 9!
#1070000
b110100 :!
b10100010000111101100111001111111 c
b110100 9!
#1130000
b110101 :!
b10100010000111101100111010010000 c
b110101 9!
#1190000
b110110 :!
b10100010000111101100111010100010 c
b110110 9!
#1250000
b110111 :!
b10100010000111101100111010110101 c
b110111 9!
#1310000
b111000 :!
b10100010000111101100111011001001 c
b111000 9!
#1370000
b111001 :!
b10100010000111101100111011011110 c
b111001 9!
#1430000
b111010 :!
b10100010000111101100111011110100 c
b111010 9!
#1490000
b111011 :!
b10100010000111101100111100001011 c
b111011 9!
#1550000
b111100 :!
b10100010000111101100111100100011 c
b111100 9!
#1610000
b111101 :!
b10100010000111101100111100111100 c
b111101 9!
#1670000
b111110 :!
b10100010000111101100111101010110 c
b111110 9!
#1730000
b111111 :!
b10100010000111101100111101110001 c
b111111 9!
#1790000
b1000000 :!
b10100010000111101100111110001101 c
b1000000 9!
#1850000
b1000001 :!
b10100010000111101100111110101010 c
b1000001 9!
#1910000
b1000010 :!
b1000010 9!
#1930000
b1000011 :!
b1000100 :!
b1000011 9!
b1000100 9!
b1000101 :!
b1000110 :!
b1000101 9!
b1000110 9!
b110010111000000010001111000 c
b10110111100001000010000000001010 c
b10011110100001010111011000000111 c
b110010001110111100111000001011 c
b101100101111000101100011101100 c
b101010000001100001010010100 c
b11010110100111111011100111111101 c
b10100111100011000010000000001111 c
b111010010111000011000000100010 c
b10101101011000111011110001011110 c
b11100010111111011001111101001001 c
b1111010101010011100010111110000 c
b1111111110111111111000010010101 c
b10110110000011001010000101101100 c
b10101010101100101110000001010110 c
b11110100110000000100010011100111 c
b10001010101110100000011001111010 c
b11101110100110110110111101101101 c
b10110010110010110110011011000001 c
b111010011000110010011010011010 c
b10111111111001011000010111100000 c
b100110011110111001101011001101 c
b100011000011110111010001111101 c
b1111110001011010010001000 c
b1001110101001111110110011010000 c
b11100101000000010101011100000101 c
b10001000101110101010000110010100 c
b110010111000000010010001010 c
b10110111100001000010000000011100 c
b10011110100001010111011000011001 c
b110010001110111100111000011101 c
b101100101111000101100011111110 c
b101010000001100001010100110 c
b1101011010